// Jest Snapshot v1, https://goo.gl/fbAQLP

exports[`should display an error when the article's details could not be loaded 1`] = `
<ArticleOverviewPage
  match={
    Object {
      "params": Object {
        "articleId": "arbitrary_article_id",
      },
      "url": "https://arbitrary_url",
    }
  }
>
  <div
    className="callout alert"
  >
    This article could not be found.
  </div>
</ArticleOverviewPage>
`;
